Sample,Test 1,Test 2,Test 3,Test 4,Test 5,Test 6,Test 7,Test 8,Test 9
1,53.91900429,50.48924719,58.40045399,53.1359876,51.40468023,57.88992109,53.48842404,50.6478286,54.17913304
2,55.16453709,53.02207551,60.53673874,54.54586934,55.11272851,54.73447216,54.21616672,57.05220453,62.05380996
3,61.95498104,64.58573003,65.8439915,68.13839965,61.42099075,63.10586435,63.76007135,61.80159906,68.55688214
4,61.42132097,61.69620198,70.55726279,60.77086916,69.97315266,69.0115146,68.3652697,63.77725143,67.44817209
5,54.34115069,54.12201597,56.48670833,63.54307256,55.24780913,54.4533003,58.20375484,62.18634099,60.92554428
6,64.70873773,55.70689831,63.53514445,59.73349813,58.24210939,63.64312161,63.42645654,63.21448768,65.97079857
7,56.7463386,58.41771613,54.46690105,59.3189062,63.32847092,62.92680152,60.98603337,55.20815042,55.63380546
8,62.51232386,55.01603958,60.83271013,65.91218691,62.29708727,55.4877139,59.90154051,62.55120636,63.81655547
9,66.3956926,64.68761694,66.31469632,65.6809769,56.37790105,67.02342871,64.2405838,,
10,51.849207,58.42158269,50.87459832,52.85302749,56.12516199,49.89396709,54.45684383,,
11,52.04089679,59.30776446,60.40786024,54.54603497,53.44151162,60.02081224,59.41902655,,
12,55.4923306,61.83530623,56.10548621,54.20024625,62.32016621,53.17622048,61.02682556,,
13,55.71845184,61.26497653,57.68431234,63.78160669,61.29648276,59.58241021,62.60723352,,
14,57.75254609,56.0510559,55.57286629,58.84998792,59.41561715,60.17287156,61.30069128,52.0369771,59.66449463
15,58.94139769,58.38832403,61.39788048,62.11501457,53.64302787,53.96460941,55.19242452,60.87931461,61.01123732
16,63.40629578,55.08827818,60.30263582,55.74353004,61.32119346,57.13491786,64.17483229,62.97253015,60.73977905
17,58.95205306,52.98142097,51.37078644,54.61080966,56.17029757,53.66119434,60.1692032,57.83865473,59.54794312
18,49.09444629,48.84776487,55.03834094,54.39856799,50.80090153,49.72031209,51.39788599,48.86659138,49.17598639
19,56.1328123,52.11509229,54.8667323,54.14602326,50.190744,55.63127514,54.71406944,48.85196045,48.27115855
20,59.66236143,59.66364105,58.45153878,56.35282525,54.87085253,61.72512317,56.08248814,61.76115069,60.1617626
21,58.14163049,58.0800608,50.61496934,55.67499851,55.96914908,50.21546224,51.42572078,58.42856205,58.03137158
22,67.03416685,64.35393918,68.91234986,64.70499587,66.39498644,66.19773826,70.63723456,68.80223165,72.80651481
23,66.93052241,62.64343281,63.93098146,66.66004475,68.03756647,62.53514933,60.64748411,68.20003842,62.70948681
24,62.72663069,57.6349796,60.46370335,54.3692679,55.70574216,60.43000171,55.1254256,64.53391167,63.77686426
25,65.21077869,63.45054072,65.03110824,64.95505863,63.82574227,63.62624763,65.81131384,60.6742637,58.07252469
26,63.95995246,60.77247647,59.24590313,65.30652839,64.24091972,56.69840178,61.79628927,59.83078196,58.53566765
27,57.47384629,64.09687618,65.58234666,63.61818007,62.58839561,63.76288697,65.06559621,63.75370041,64.81323223
28,57.7487135,54.31757544,62.221128,59.17864529,61.62316383,60.05149598,56.58028416,54.04932489,56.96576784
29,64.22416572,59.1035512,67.87089038,65.39289506,61.61021383,59.58844838,61.07533247,65.63016597,60.09055453
